Data Wrangling III
…
<img src="08-data-wrangling-3_files/figure-html/unnamed-chunk-25-1.png" alt="" width="80%" style="display: block; margin: auto;" />

---

## Data

.pull-left-wide[

``` r
trump
```

```
## # A tibble: 2,702 × 4
##    subgroup date       approval disapproval
##    <chr>    <date>        <dbl>       <dbl>
##  1 Voters   2020-10-04     44.7        52.2
##  2 Adults   2020-10-04     43.2        52.6
##  3 Adults   2020-10-03     43.2        52.6
##  4 Voters   2020-10-03     45.0        51.7
##  5 Adults   2020-10-02     43.3        52.4
##  6 Voters   2020-10-02     44.5        52.1
##  7 Voters   2020-10-01     44.1        52.8
##  8 Adults   2020-10-01     42.7        53.3
##  9 Adults   2020-09-30     42.2        53.7
## 10 Voters   2020-09-30     44.2        52.7
## # ℹ 2,692 more rows
```
…
``` r
titanic_df |> 
  group_by(sex)
```

```
## # A tibble: 891 × 3
## # Groups:   sex [2]
##    survived sex    class
##    <chr>    <chr>  <fct>
##  1 Died     male   3rd  
##  2 Survived female 1st  
##  3 Survived female 3rd  
##  4 Survived female 1st  
##  5 Died     male   3rd  
##  6 Died     male   3rd  
##  7 Died     male   1st  
##  8 Died     male   3rd  
##  9 Survived female 3rd  
## 10 Survived female 2nd  
## # ℹ 881 more rows
```
…
---

## What does group_by() not do?

`group_by()` does not sort the data, `arrange()` does

.pull-left[

``` r
titanic_df |> 
  group_by(sex)
```

```
## # A tibble: 891 × 3
## # Groups:   sex [2]
##    survived sex    class
##    <chr>    <chr>  <fct>
##  1 Died     male   3rd  
##  2 Survived female 1st  
##  3 Survived female 3rd  
##  4 Survived female 1st  
##  5 Died     male   3rd  
##  6 Died     male   3rd  
##  7 Died     male   1st  
##  8 Died     male   3rd  
##  9 Survived female 3rd  
## 10 Survived female 2nd  
## # ℹ 881 more rows
```
…
---

## What does group_by() not do?

`group_by()` does not create frequency tables, `count()` does

.pull-left[

``` r
titanic_df |> 
  group_by(sex)
```

```
## # A tibble: 891 × 3
## # Groups:   sex [2]
##    survived sex    class
##    <chr>    <chr>  <fct>
##  1 Died     male   3rd  
##  2 Survived female 1st  
##  3 Survived female 3rd  
##  4 Survived female 1st  
##  5 Died     male   3rd  
##  6 Died     male   3rd  
##  7 Died     male   1st  
##  8 Died     male   3rd  
##  9 Survived female 3rd  
## 10 Survived female 2nd  
## # ℹ 881 more rows
```
…
## Grouping by more than one variable

``` r
titanic_df |> 
  count(class, sex, survived) |> 
  group_by(sex, class) |> 
  mutate(prop = n/sum(n))
```

```
## # A tibble: 12 × 5
## # Groups:   sex, class [6]
##    class sex    survived     n   prop
##    <fct> <chr>  <chr>    <int>  <dbl>
##  1 1st   female Died         3 0.0319
##  2 1st   female Survived    91 0.968 
##  3 1st   male   Died        77 0.631 
##  4 1st   male   Survived    45 0.369 
##  5 2nd   female Died         6 0.0789
##  6 2nd   female Survived    70 0.921 
##  7 2nd   male   Died        91 0.843 
##  8 2nd   male   Survived    17 0.157 
##  9 3rd   female Died        72 0.5   
## 10 3rd   female Survived    72 0.5   
## # ℹ 2 more rows
```
…
