Data Importing & Cleaning
…
# Why should you care about data types?

---

## Example: Cat lovers

A survey asked respondents their name and number of cats. The instructions said to enter the number of cats as a numerical value.

``` r
cat_lovers <- read_csv("data/cat-lovers.csv")
```

```
## # A tibble: 60 × 3
##   name           number_of_cats handedness
##   <chr>          <chr>          <chr>     
## 1 Bernice Warren 0              left      
## 2 Woodrow Stone  0              left      
## 3 Willie Bass    1              left      
## 4 Tyrone Estrada 3              left      
## 5 Alex Daniels   3              left      
## 6 Jane Bates     2              left      
## # ℹ 54 more rows
```
…
.small[

]

---

# `distinct()` can help

``` r
cat_lovers |> 
  distinct(number_of_cats)
```

```
## # A tibble: 7 × 1
##   number_of_cats                                     
##   <chr>                                              
## 1 0                                                  
## 2 1                                                  
## 3 3                                                  
## 4 2                                                  
## 5 4                                                  
## 6 1.5 - honestly I think one of my cats is half human
## # ℹ 1 more row
```
…
---

.question[
Calculate and visualise the number of bookings on any given arrival date.
]

``` r
hotels |>
  select(starts_with("arrival_"))
```

```
## # A tibble: 119,390 × 4
##   arrival_date_year arrival_date_month arrival_date_week_number
##               <dbl> <chr>                                 <dbl>
## 1              2015 July                                     27
## 2              2015 July                                     27
## 3              2015 July                                     27
## 4              2015 July                                     27
## 5              2015 July                                     27
## 6              2015 July                                     27
## # ℹ 119,384 more rows
## # ℹ 1 more variable: arrival_date_day_of_month <dbl>
```
…
## Step 2. Count bookings per date

.midi[

``` r
hotels |>
  unite(col = arrival_date, arrival_date_year,
        arrival_date_month, arrival_date_day_of_month,
         sep = " ") |>
  count(arrival_date)
```

```
## # A tibble: 793 × 2
##   arrival_date       n
##   <chr>          <int>
## 1 2015 August 1    110
## 2 2015 August 10   207
## 3 2015 August 11   117
## 4 2015 August 12   133
## 5 2015 August 13   107
## 6 2015 August 14   329
## # ℹ 787 more rows
```
…
## Step 2. Count bookings per date

.midi[

``` r
hotels |>
  unite(col = arrival_date, arrival_date_year,
        arrival_date_month, arrival_date_day_of_month,
         sep = " ") |> 
  mutate(arrival_date = ymd(arrival_date)) |> 
  count(arrival_date)
```

```
## # A tibble: 793 × 2
##   arrival_date     n
##   <date>       <int>
## 1 2015-07-01     122
## 2 2015-07-02      93
## 3 2015-07-03      56
## 4 2015-07-04      88
## 5 2015-07-05      53
## 6 2015-07-06      75
## # ℹ 787 more rows
```
…
- `read_excel()` - read xls or xlsx files
- ...
]

---

## Reading data

``` r
nobel <- read_csv(file = "data/nobel.csv")
nobel
```

```
## # A tibble: 935 × 26
##      id firstname      surname    year category affiliation city 
##   <dbl> <chr>          <chr>     <dbl> <chr>    <chr>       <chr>
## 1     1 Wilhelm Conrad Röntgen    1901 Physics  Munich Uni… Muni…
## 2     2 Hendrik A.     Lorentz    1902 Physics  Leiden Uni… Leid…
## 3     3 Pieter         Zeeman     1902 Physics  Amsterdam … Amst…
## 4     4 Henri          Becquerel  1903 Physics  École Poly… Paris
## 5     5 Pierre         Curie      1903 Physics  École muni… Paris
## 6     6 Marie          Curie      1903 Physics  <NA>        <NA> 
## # ℹ 929 more rows
## # ℹ 19 more variables: country <chr>, born_date <date>,
## #   died_date <date>, gender <chr>, born_city <chr>,
## #   born_country <chr>, born_country_code <chr>,
## #   died_city <chr>, died_country <chr>,
## #   died_country_code <chr>, overall_motivation <chr>,
## #   share <dbl>, motivation <chr>, …
```
…
