Lab: Simpson’s Paradox and Berkeley Admissions
…
── Attaching core tidyverse packages ──────────────────────── tidyverse 2.0.0 ──
✔ dplyr     1.1.4     ✔ readr     2.1.5
✔ forcats   1.0.0     ✔ stringr   1.6.0
✔ ggplot2   4.0.1     ✔ tibble    3.3.1
✔ lubridate 1.9.4     ✔ tidyr     1.3.2
✔ purrr     1.2.1     
── Conflicts ────────────────────────────────────────── tidyverse_conflicts() ──
✖ dplyr::filter() masks stats::filter()
✖ dplyr::lag()    masks stats::lag()
ℹ Use the conflicted package (<http://conflicted.r-lib.org/>) to force all conflicts to become errors

library(dsbox)
ucbadmit

# A tibble: 4,526 × 3
   admit    gender dept 
   <fct>    <fct>  <ord>
 1 Admitted Male   A    
 2 Admitted Male   A    
 3 Admitted Male   A    
 4 Admitted Male   A    
 5 Admitted Male   A    
 6 Admitted Male   A    
 7 Admitted Male   A    
 8 Admitted Male   A    
 9 Admitted Male   A    
10 Admitted Male   A    
# ℹ 4,516 more rows
…
Based on these results alone, what conclusion might someone draw about gender bias?

Write your answer in complete sentences.

Step 2: Admission rates by department

The overall comparison ignores the fact that applicants apply to different departments with different admission rates.

Counting by department, gender, and admission

ucbadmit |>
  count(dept, gender, admit)

# A tibble: 24 × 4
   dept  gender admit        n
   <ord> <fct>  <fct>    <int>
 1 A     Female Rejected    19
 2 A     Female Admitted    89
 3 A     Male   Rejected   313
 4 A     Male   Admitted   512
 5 B     Female Rejected     8
 6 B     Female Admitted    17
 7 B     Male   Rejected   207
 8 B     Male   Admitted   353
 9 C     Female Rejected   391
10 C     Female Admitted   202
# ℹ 14 more rows

Practice: computing department-level admission rates

Compute the proportion admitted within each department and gender.

ucbadmit |>
  count(dept, gender, admit) |>
  group_by(dept, gender) |>
  mutate(prop = n / sum(n))

# A tibble: 24 × 5
# Groups:   dept, gender [12]
   dept  gender admit        n  prop
   <ord> <fct>  <fct>    <int> <dbl>
 1 A     Female Rejected    19 0.176
 2 A     Female Admitted    89 0.824
 3 A     Male   Rejected   313 0.379
 4 A     Male   Admitted   512 0.621
 5 B     Female Rejected     8 0.32 
 6 B     Female Admitted    17 0.68 
 7 B     Male   Rejected   207 0.370
 8 B     Male   Admitted   353 0.630
 9 C     Female Rejected   391 0.659
10 C     Female Admitted   202 0.341
# ℹ 14 more rows
…
